# CLR transformation returns expected output

    Code
      urt_clr$clr_counts
    Output
      # A tibble: 3,272 x 3
         sample_id taxon_id count
         <chr>     <chr>    <dbl>
       1 s1        t7        4.68
       2 s1        t2        3.50
       3 s1        t14       3.81
       4 s1        t11       3.07
       5 s1        t30       3.05
       6 s1        t146      1.25
       7 s2        t7        4.41
       8 s2        t2        3.76
       9 s2        t14       1.64
      10 s2        t11       1.48
      # ... with 3,262 more rows
